Clasificación con el conjunto de datos Breast Cancer
…
Código

cancer_raw  <- read_csv('cancer_dataset.csv')

Transformamos los datos, seleccionamos columnas y eliminamos filas con na.

Código

cancer_data <- cancer_raw %>% 
  mutate(diagnosis = as.factor(diagnosis)) %>%
  select(-c('id')) %>%
  drop_na()
cancer_data

# A tibble: 569 × 31
   diagnosis radius_mean texture_mean perimeter_mean area_mean smoothness_mean
   <fct>           <dbl>        <dbl>          <dbl>     <dbl>           <dbl>
 1 B                12.3         12.4           78.8      464.          0.103 
 2 B                10.6         19.0           69.3      346.          0.0969
 3 B                11.0         16.8           70.9      373.          0.108 
 4 B                11.3         13.4           73        385.          0.116 
 5 B                15.2         13.2           97.6      712.          0.0796
 6 B                11.6         19.0           74.2      410.          0.0855
 7 B                11.5         23.9           74.5      404.          0.0926
 8 M                13.8         23.8           91.6      598.          0.132 
 9 B                10.5         19.3           67.4      336.          0.0999
10 B                11.1         15.0           71.5      374.          0.103 
# ℹ 559 more rows
# ℹ 25 more variables: compactness_mean <dbl>, concavity_mean <dbl>,
#   points_mean <dbl>, symmetry_mean <dbl>, dimension_mean <dbl>,
#   radius_se <dbl>, texture_se <dbl>, perimeter_se <dbl>, area_se <dbl>,
#   smoothness_se <dbl>, compactness_se <dbl>, concavity_se <dbl>,
#   points_se <dbl>, symmetry_se <dbl>, dimension_se <dbl>, radius_worst <dbl>,
#   texture_worst <dbl>, perimeter_worst <dbl>, area_worst <dbl>, …
…
