Clasificación con el conjunto de datos Titanic
…
Transformamos los datos, seleccionamos columnas y eliminamos filas con na.

Código

titanic_data <- titanic_raw %>% 
  mutate(Survived = ifelse(Survived == 0, 'No', 'Yes')) %>%
  mutate_at(c('Sex', 'Survived', 'Pclass'), as.factor) %>%
  mutate_at(c('Age', 'Parch'), as.integer) %>%
  select(Survived, Pclass, Sex, Age, SibSp, Parch, Fare) %>%
  drop_na()

titanic_data

# A tibble: 714 × 7
   Survived Pclass Sex      Age SibSp Parch  Fare
   <fct>    <fct>  <fct>  <int> <dbl> <int> <dbl>
 1 No       3      male      22     1     0  7.25
 2 Yes      1      female    38     1     0 71.3 
 3 Yes      3      female    26     0     0  7.92
 4 Yes      1      female    35     1     0 53.1 
 5 No       3      male      35     0     0  8.05
 6 No       1      male      54     0     0 51.9 
 7 No       3      male       2     3     1 21.1 
 8 Yes      3      female    27     0     2 11.1 
 9 Yes      2      female    14     1     0 30.1 
10 Yes      3      female     4     1     1 16.7 
# ℹ 704 more rows
…
test  <- test_raw %>%
  mutate_at(c('Sex', 'Pclass'), as.factor) %>%
  mutate_at(c('Age', 'Parch'), as.integer) %>%
  select(Pclass, Sex, Age, SibSp, Parch, Fare) %>%
  drop_na() %>%
  predict(dobj, .) %>%
  predict(sobj, .) %>%
  as_tibble()

knn.pred <- knn(train[2:7], test[2:7], train$Survived, k = 5)

knn.pred %>% as_tibble()

# A tibble: 331 × 1
   value
   <fct>
 1 No   
 2 No   
 3 No   
 4 No   
 5 No   
 6 No   
 7 No   
 8 No   
 9 No   
10 No   
# ℹ 321 more rows
…
